Place,Name,BirthDate,BirthYear,Sex,Division,BodyweightKg,Squat1Kg,Squat2Kg,Squat3Kg,Best3SquatKg,Bench1Kg,Bench2Kg,Bench3Kg,Best3BenchKg,Deadlift1Kg,Deadlift2Kg,Deadlift3Kg,Best3DeadliftKg,TotalKg,Equipment,WeightClassKg,Event
1,Elaine Kies,,1989,F,Open,91.2,77,81,85,85,49,52,54,54,95,106,-115,106,245,Raw,100,SBD
1,Jessica Bishop,,1991,F,Open,102.3,115,125,140,140,55,65,75,75,120,140,155,155,370,Raw,100+,SBD
2,Candice Pennicott,,1981,F,Open,108,105,-110,115,115,63,67,70,70,135,138,145,145,330,Raw,100+,SBD
1,Wen Yin Chen,,1994,M,Open,76.3,160,170,-180,170,120,127,-130,127,200,210,215,215,512,Raw,77,SBD
1,Joseph Puntoriera,,1995,M,Open,81.4,170,180,185,185,105,112.5,-115,112.5,225,-235,-235,225,522,Raw,85,SBD
1,Mitch Munro,,1989,M,Open,96.5,240,250,,250,150,160,,160,275,290,,290,700,Raw,105,SBD
1,George Kalitsis,,2002,M,Open,62.3,100,115,-125,115,80,90,-95,90,140,150,160,160,365,Raw,69,SBD
